DSAN-5000: Project - Data Cleaning
…
4 119         
# A tibble: 4 x 1
  Alcohol 
  <chr>   
1 Negative
2 Missing 
3 Positive
4 119     
# A tibble: 3 x 1
  All_Other_Tox
  <chr>        
1 Positive     
2 None         
3 119          
# A tibble: 56 x 1
   `Medical Conditions`                                                         
   <chr>                                                                        
 1 None                                                                         
 2 Hypothyroidism                                                               
 3 Pt had leukocytosis axillary abscess drained while on unit and then a short ~
 4 DM Type 2, HTN, CVA, HCV                                                     
 5 Recently post-partum                                                         
 6 AIDS                                                                         
 7 Asthma, herpes, HTN                                                          
 8 HTN                                                                          
 9 None recorded but taking asthma medications                                  
10 HIV                                                                          
# i 46 more rows
…
